<svg version="1.1" id="icon" xmlns="http://www.w3.org/2000/svg" xmlns:xlink="http://www.w3.org/1999/xlink" x="0px" y="0px" width="512px" height="512px" viewBox="0 0 512 512" style="enable-background:new 0 0 512 512;" xml:space="preserve">
<style type="text/css">.st0{fill:#FF0000;} .st1{fill:#000A28;} .st2{opacity:0.66;fill:#000A28;} .st3{opacity:0.33;fill:#000A28;}</style>
<rect id="red" class="st0" width="512" height="512"/><rect id="blue" x="256" y="256" class="st1" width="256" height="256"/><rect id="blue66" y="256" class="st2" width="256" height="256"/><rect id="blue33" x="256" class="st3" width="256" height="256"/>
</svg>